<svg xmlns="http://www.w3.org/2000/svg" width="32" height="32.925" viewBox="0 0 32 32.925">
  <g id="notification-bing" transform="translate(0 0.925)">
    <path id="Vector" d="M0,0V4.387" transform="matrix(0.966, 0.259, -0.259, 0.966, 17.939, 8.857)" fill="none" stroke="#eeb461" stroke-linecap="round" stroke-width="1.5"/>
    <path id="Vector-2" data-name="Vector" d="M11.894-.039A8.9,8.9,0,0,0,2.981,8.771L2.972,11.54a6.821,6.821,0,0,1-.85,3.009l-1.7,2.8A2.788,2.788,0,0,0,2,21.63a31.474,31.474,0,0,0,19.647-.065,2.929,2.929,0,0,0,1.615-4.29l-1.685-2.79a6.8,6.8,0,0,1-.83-3l.009-2.769A8.813,8.813,0,0,0,11.894-.039Z" transform="matrix(0.966, 0.259, -0.259, 0.966, 8.002, 0.052)" fill="none" stroke="#eeb461" stroke-linecap="round" stroke-width="1.5"/>
    <path id="Vector-3" data-name="Vector" d="M8.773,0A4.4,4.4,0,0,1,4.387,4.387,4.395,4.395,0,0,1,1.291,3.1,4.395,4.395,0,0,1,0,0" transform="matrix(0.966, 0.259, -0.259, 0.966, 9.413, 23.736)" fill="none" stroke="#eeb461" stroke-width="1.5"/>
    <path id="Vector-4" data-name="Vector" d="M0,0H32V32H0Z" fill="none"/>
  </g>
</svg>
