<svg xmlns="http://www.w3.org/2000/svg" width="24" height="24" viewBox="0 0 24 24">
  <g id="vuesax_linear_refresh" data-name="vuesax/linear/refresh" transform="translate(-364 -508)">
    <g id="refresh">
      <path id="Vector" d="M0,5.56H4.44" transform="translate(366 510)" fill="none" stroke="#eeb461" stroke-linecap="round" stroke-linejoin="round" stroke-width="1.5"/>
      <path id="Vector-2" data-name="Vector" d="M12.55,19.67A10,10,0,0,0,10,0,12.3,12.3,0,0,0,0,5.56V1" transform="translate(366 510)" fill="none" stroke="#eeb461" stroke-linecap="round" stroke-linejoin="round" stroke-width="1.5"/>
      <path id="Vector-3" data-name="Vector" d="M0,0A10,10,0,0,0,10,10" transform="translate(366 520)" fill="none" stroke="#eeb461" stroke-linecap="round" stroke-linejoin="round" stroke-width="1.5" stroke-dasharray="3 3"/>
      <path id="Vector-4" data-name="Vector" d="M0,0H24V24H0Z" transform="translate(388 532) rotate(180)" fill="none" opacity="0"/>
    </g>
  </g>
</svg>
