<svg id="verify" xmlns="http://www.w3.org/2000/svg" width="32" height="32" viewBox="0 0 32 32">
  <path id="Vector" d="M0,3.227,3.213,6.453,9.653,0" transform="translate(11.173 12.773)" fill="none" stroke="#178186" stroke-linecap="round" stroke-linejoin="round" stroke-width="1.5"/>
  <path id="Vector-2" data-name="Vector" d="M11.66.59a2.687,2.687,0,0,1,3.36,0L17.127,2.4a2.955,2.955,0,0,0,1.68.627h2.267A2.583,2.583,0,0,1,23.647,5.6V7.87a2.991,2.991,0,0,0,.627,1.68l1.813,2.107a2.687,2.687,0,0,1,0,3.36l-1.813,2.107a2.955,2.955,0,0,0-.627,1.68V21.07a2.583,2.583,0,0,1-2.573,2.573H18.807a2.991,2.991,0,0,0-1.68.627L15.02,26.083a2.687,2.687,0,0,1-3.36,0L9.553,24.27a2.955,2.955,0,0,0-1.68-.627H5.567A2.583,2.583,0,0,1,2.993,21.07V18.79a3.034,3.034,0,0,0-.613-1.667L.58,15a2.685,2.685,0,0,1,0-3.333l1.8-2.12a3.034,3.034,0,0,0,.613-1.667V5.59A2.583,2.583,0,0,1,5.567,3.017H7.873a2.991,2.991,0,0,0,1.68-.627Z" transform="translate(2.673 2.677)" fill="none" stroke="#178186" stroke-linecap="round" stroke-linejoin="round" stroke-width="1.5"/>
  <path id="Vector-3" data-name="Vector" d="M0,0H32V32H0Z" fill="none" opacity="0"/>
</svg>
